[Mesh]
  type = GeneratedMesh
  dim = 2
  nx = 100
  ny = 10
  xmax = 0.304 # Height of the chamber
  ymax = 0.0257 # Test chamber radius
[]

[Variables]
  [pressure]
  []
[]

[AuxVariables]
  [velocity_x]
    order = CONSTANT
    family = MONOMIAL
  []
  [velocity_y]
    order = CONSTANT
    family = MONOMIAL
  []
  [velocity_z]
    order = CONSTANT
    family = MONOMIAL
  []
  [velocity]
    order = CONSTANT
    family = MONOMIAL_VEC
  []
[]

[Kernels]
  [diffusion]
    type = DarcyPressure
    variable = pressure
  []
[]

[AuxKernels]
  [velocity]
    type = DarcyVelocity
    variable = velocity
    execute_on = 'TIMESTEP_END'
    pressure = 'pressure'
  []
  [velocity_x]
    type = VectorVariableComponentAux
    variable = velocity_x
    component = x
    execute_on = 'timestep_end'
    vector_variable = 'velocity'
  []
  [velocity_y]
    type = VectorVariableComponentAux
    variable = velocity_x
    component = y
    execute_on = 'timestep_end'
    vector_variable = 'velocity'
  []
  [velocity_z]
    type = VectorVariableComponentAux
    variable = velocity_z
    component = z
    execute_on = 'timestep_end'
    vector_variable = 'velocity'
  []
[]

[BCs]
  [inlet]
    type = DirichletBC
    variable = pressure
    boundary = 'left'
    value = 4000
  []
  [outlet]
    type = DirichletBC
    variable = pressure
    boundary = 'right'
    value = 0
  []
[]

[Materials]
  [column]
    # radius = '1 + 2/3.04*x'
    type = PackedColumn
    radius = 1
    outputs = 'exodus'
  []
[]

[Problem]
  type = FEProblem
  coord_type = 'RZ'
  rz_coord_axis = X # Which axis is the symmetry around
[]

[Executioner]
  type = Steady
  solve_type = NEWTON
  petsc_options_iname = '-pc_type -pc_hypre_type'
  petsc_options_value = 'hypre boomerang'
[]

[Outputs]
  exodus = true
[]
